…
daily_single_ag
#> NASA/POWER SRB/FLASHFlux/MERRA2/GEOS 5.12.4 (FP-IT) 0.5 x 0.5 Degree Daily Averaged Data  
#>  Dates (month/day/year): 01/01/1985 through 01/31/1985  
#>  Location: Latitude  -27.48   Longitude 151.8  
#>  Elevation from MERRA-2: Average for 1/2x1/2 degree lat/lon region = 434.55 meters   Site = na  
#>  Climate zone: na (reference Briggs et al: http://www.energycodes.gov)  
#>  Value for missing model data cannot be computed or out of model availability range: NA  
#>  
#>  Parameters: 
#>  T2M MERRA2 1/2x1/2 Temperature at 2 Meters (C) ;
#>  RH2M MERRA2 1/2x1/2 Relative Humidity at 2 Meters (%) ;
#>  PRECTOT MERRA2 1/2x1/2 Precipitation (mm day-1)  
#>  
#> # A tibble: 31 x 10
#>      LON   LAT  YEAR    MM    DD   DOY YYYYMMDD    RH2M   T2M PRECTOT
#>    <dbl> <dbl> <dbl> <int> <int> <int> <date>     <dbl> <dbl>   <dbl>
#>  1  152. -27.5  1985     1     1     1 1985-01-01  48.9  25.1    1.07
#>  2  152. -27.5  1985     1     2     2 1985-01-02  41.8  28.4    0.5 
#>  3  152. -27.5  1985     1     3     3 1985-01-03  40.4  27.5    0.03
#>  4  152. -27.5  1985     1     4     4 1985-01-04  46.4  24.6    0.1 
#>  5  152. -27.5  1985     1     5     5 1985-01-05  50.8  26.5    2.13
#>  6  152. -27.5  1985     1     6     6 1985-01-06  58.6  26.8    5.32
#>  7  152. -27.5  1985     1     7     7 1985-01-07  61.1  27.0   11.9 
#>  8  152. -27.5  1985     1     8     8 1985-01-08  66.5  25.1    8.69
#>  9  152. -27.5  1985     1     9     9 1985-01-09  55.8  26.1    2.45
#> 10  152. -27.5  1985     1    10    10 1985-01-10  41.2  27.0    0.36
#> # … with 21 more rows
```
…
daily_region_ag
#> NASA/POWER SRB/FLASHFlux/MERRA2/GEOS 5.12.4 (FP-IT) 0.5 x 0.5 Degree Daily Averaged Data  
#>  Dates (month/day/year): 01/01/1985 through 01/02/1985  
#>  Location: Regional  
#>  Elevation from MERRA-2: Average for 1/2x1/2 degree lat/lon region = na meters   Site = na  
#>  Climate zone: na (reference Briggs et al: http://www.energycodes.gov)  
#>  Value for missing model data cannot be computed or out of model availability range: NA  
#>  
#>  Parameters: 
#>  T2M MERRA2 1/2x1/2 Temperature at 2 Meters (C) ;
#>  RH2M MERRA2 1/2x1/2 Relative Humidity at 2 Meters (%)  
#>  
#> # A tibble: 98 x 9
#>      LON   LAT  YEAR    MM    DD   DOY YYYYMMDD    RH2M   T2M
#>    <dbl> <dbl> <dbl> <int> <int> <int> <date>     <dbl> <dbl>
#>  1  151. -28.2  1985     1     1     1 1985-01-01  39.7  26.5
#>  2  151. -28.2  1985     1     1     1 1985-01-01  40.4  25.8
#>  3  152. -28.2  1985     1     1     1 1985-01-01  47.0  24.0
#>  4  152. -28.2  1985     1     1     1 1985-01-01  51.8  23.9
#>  5  153. -28.2  1985     1     1     1 1985-01-01  56.2  24.9
#>  6  153. -28.2  1985     1     1     1 1985-01-01  62.5  26.0
#>  7  154. -28.2  1985     1     1     1 1985-01-01  74.7  26.1
#>  8  151. -27.8  1985     1     1     1 1985-01-01  41.3  26.5
#>  9  151. -27.8  1985     1     1     1 1985-01-01  43.4  26.0
#> 10  152. -27.8  1985     1     1     1 1985-01-01  47.6  24.8
#> # … with 88 more rows
```
…
interannual_sse
#> NASA/POWER SRB/FLASHFlux/MERRA2/GEOS 5.12.4 (FP-IT) 0.5 x 0.5 Degree Interannual Averages/Sums  
#>  Dates (month/day/year): 01/01/1984 through 12/31/1985  
#>  Location: Regional  
#>  Elevation from MERRA-2: Average for 1/2x1/2 degree lat/lon region = na meters   Site = na  
#>  Climate zone: na (reference Briggs et al: http://www.energycodes.gov)  
#>  Value for missing model data cannot be computed or out of model availability range: NA  
#>  
#>  Parameters: 
#>  CLRSKY_SFC_SW_DWN SRB/FLASHFlux 1/2x1/2 Clear Sky Insolation Incident on a Horizontal Surface (kW-hr/m^2/day) ;
#>  ALLSKY_SFC_SW_DWN SRB/FLASHFlux 1/2x1/2 All Sky Insolation Incident on a Horizontal Surface (kW-hr/m^2/day)  
#>  
#> # A tibble: 196 x 17
#>      LON   LAT PARAMETER    YEAR   JAN   FEB   MAR   APR   MAY   JUN   JUL   AUG
#>    <dbl> <dbl> <chr>       <dbl> <dbl> <dbl> <dbl> <dbl> <dbl> <dbl> <dbl> <dbl>
#>  1  151. -28.2 CLRSKY_SFC…  1984  8.5   7.96  6.92  5.54  4.49  3.89  4.14  5.32
#>  2  151. -28.2 CLRSKY_SFC…  1985  8.87  8.1   6.94  5.6   4.44  4.03  4.2   5.18
#>  3  151. -28.2 ALLSKY_SFC…  1984  6.11  6.83  6.28  4.6   4.02  3.46  2.58  4.86
#>  4  151. -28.2 ALLSKY_SFC…  1985  8.2   7.15  6.02  4.79  3.89  3.44  3.8   4.2 
#>  5  151. -28.2 CLRSKY_SFC…  1984  8.45  8.09  6.77  5.5   4.41  3.95  4.15  5.31
#>  6  151. -28.2 CLRSKY_SFC…  1985  8.76  8.03  6.93  5.57  4.39  3.93  4.2   5.09
#>  7  151. -28.2 ALLSKY_SFC…  1984  5.82  6.43  5.95  4.41  3.89  3.54  2.43  4.68
#>  8  151. -28.2 ALLSKY_SFC…  1985  7.98  6.86  5.74  4.46  3.67  3.34  3.8   3.98
#>  9  152. -28.2 CLRSKY_SFC…  1984  8.45  8.09  6.77  5.5   4.41  3.95  4.15  5.31
#> 10  152. -28.2 CLRSKY_SFC…  1985  8.76  8.03  6.93  5.57  4.39  3.93  4.2   5.09
#> # … with 186 more rows, and 5 more variables: SEP <dbl>, OCT <dbl>, NOV <dbl>,
#> #   DEC <dbl>, ANN <dbl>
```
…
climatology_ag
#> NASA/POWER SRB/FLASHFlux/MERRA2/GEOS 5.12.4 (FP-IT) 0.5 x 0.5 Degree Climatologies  
#>  22-year Additional Solar Parameter Monthly & Annual Climatologies (July 1983 - June 2005), 30-year Meteorological and Solar Monthly & Annual Climatologies (January 1984 - December 2013)  
#>  Location: Global  
#>  Value for missing model data cannot be computed or out of model availability range: NA  
#>  Parameter(s):  
#>  T2M MERRA2 1/2x1/2 Temperature at 2 Meters (C)  
#>  
#>  Parameters: 
#>  NA;
#>  RH2M MERRA2 1/2x1/2 Relative Humidity at 2 Meters (%)  
#>  
#> # A tibble: 518,400 x 16
#>      LON   LAT PARAMETER   JAN   FEB   MAR   APR   MAY   JUN   JUL   AUG   SEP
#>    <dbl> <dbl> <chr>     <dbl> <dbl> <dbl> <dbl> <dbl> <dbl> <dbl> <dbl> <dbl>
#>  1 -180. -89.8 T2M       -29.0 -40.7 -52.9 -57.8 -59.1 -59.6 -61.3 -61.8 -60.4
#>  2 -180. -89.8 RH2M       70.3  64.3  63.5  63.2  63.9  64.2  63.9  63.9  63.6
#>  3 -179. -89.8 T2M       -29.0 -40.7 -52.9 -57.8 -59.1 -59.6 -61.3 -61.8 -60.4
#>  4 -179. -89.8 RH2M       70.3  64.3  63.4  63.2  63.9  64.2  63.9  63.9  63.6
#>  5 -179. -89.8 T2M       -29.0 -40.7 -52.9 -57.8 -59.1 -59.6 -61.3 -61.8 -60.4
#>  6 -179. -89.8 RH2M       70.3  64.3  63.4  63.2  63.9  64.2  63.9  63.9  63.6
#>  7 -178. -89.8 T2M       -29.0 -40.7 -52.9 -57.8 -59.1 -59.6 -61.3 -61.8 -60.4
#>  8 -178. -89.8 RH2M       70.3  64.3  63.4  63.2  63.9  64.2  63.9  63.9  63.5
#>  9 -178. -89.8 T2M       -29.0 -40.7 -52.9 -57.8 -59.1 -59.6 -61.3 -61.8 -60.4
#> 10 -178. -89.8 RH2M       70.3  64.3  63.4  63.2  63.9  64.2  63.8  63.9  63.5
#> # … with 518,390 more rows, and 4 more variables: OCT <dbl>, NOV <dbl>,
#> #   DEC <dbl>, ANN <dbl>
```
…
