Get POWER Data and Return a Tidy Data Frame — get_power • nasapower
…
ag_c
#> NASA/POWER SRB/FLASHFlux/MERRA2/GEOS 5.12.4 (FP-IT) 0.5 x 0.5 Degree Climatologies  
#>  22-year Additional Solar Parameter Monthly & Annual Climatologies (July 1983 - June 2005), 30-year Meteorological and Solar Monthly & Annual Climatologies (January 1984 - December 2013)  
#>  Location: Global  
#>  Value for missing model data cannot be computed or out of model availability range: NA  
#>  Parameter(s):  
#>  T2M MERRA2 1/2x1/2 Temperature at 2 Meters (C)  
#>  
#>  Parameters: 
#>  NA;
#>  NA;
#>  T2M MERRA2 1/2x1/2 Temperature at 2 Meters (C)  
#>  
#> # A tibble: 259,200 x 16
#>      LON   LAT PARAMETER   JAN   FEB   MAR   APR   MAY   JUN   JUL   AUG   SEP
#>    <dbl> <dbl> <chr>     <dbl> <dbl> <dbl> <dbl> <dbl> <dbl> <dbl> <dbl> <dbl>
#>  1 -180. -89.8 T2M       -29.0 -40.7 -52.9 -57.8 -59.1 -59.6 -61.3 -61.8 -60.4
#>  2 -179. -89.8 T2M       -29.0 -40.7 -52.9 -57.8 -59.1 -59.6 -61.3 -61.8 -60.4
#>  3 -179. -89.8 T2M       -29.0 -40.7 -52.9 -57.8 -59.1 -59.6 -61.3 -61.8 -60.4
#>  4 -178. -89.8 T2M       -29.0 -40.7 -52.9 -57.8 -59.1 -59.6 -61.3 -61.8 -60.4
#>  5 -178. -89.8 T2M       -29.0 -40.7 -52.9 -57.8 -59.1 -59.6 -61.3 -61.8 -60.4
#>  6 -177. -89.8 T2M       -28.9 -40.7 -52.9 -57.9 -59.1 -59.6 -61.3 -61.8 -60.4
#>  7 -177. -89.8 T2M       -28.9 -40.7 -52.9 -57.9 -59.1 -59.6 -61.3 -61.8 -60.4
#>  8 -176. -89.8 T2M       -28.9 -40.7 -53.0 -57.9 -59.1 -59.6 -61.3 -61.8 -60.4
#>  9 -176. -89.8 T2M       -28.9 -40.7 -53.0 -57.9 -59.1 -59.6 -61.3 -61.8 -60.4
#> 10 -175. -89.8 T2M       -28.9 -40.7 -53.0 -57.9 -59.1 -59.6 -61.3 -61.8 -60.4
#> # ... with 259,190 more rows, and 4 more variables: OCT <dbl>, NOV <dbl>,
#> #   DEC <dbl>, ANN <dbl>
…
sse_i
#> NASA/POWER SRB/FLASHFlux/MERRA2/GEOS 5.12.4 (FP-IT) 0.5 x 0.5 Degree Interannual Averages/Sums  
#>  Dates (month/day/year): 01/01/1984 through 12/31/1985  
#>  Location: Regional  
#>  Elevation from MERRA-2: Average for 1/2x1/2 degree lat/lon region = na meters   Site = na  
#>  Climate zone: na (reference Briggs et al: http://www.energycodes.gov)  
#>  Value for missing model data cannot be computed or out of model availability range: NA9  
#>  
#>  Parameters: 
#>  ALLSKY_SFC_SW_DWN SRB/FLASHFlux 1/2x1/2 All Sky Insolation Incident on a Horizontal Surface (kW-hr/m^2/day) ;
#>  CLRSKY_SFC_SW_DWN SRB/FLASHFlux 1/2x1/2 Clear Sky Insolation Incident on a Horizontal Surface (kW-hr/m^2/day)  
#>  
#> # A tibble: 308 x 17
#>      LON   LAT PARAMETER  YEAR   JAN   FEB   MAR   APR   MAY   JUN   JUL   AUG
#>    <dbl> <dbl> <chr>     <int> <dbl> <dbl> <dbl> <dbl> <dbl> <dbl> <dbl> <dbl>
#>  1  113. -55.2 CLRSKY_S…  1984  8.5   6.84  4.64  2.52  1.19  0.69 0.94   1.96
#>  2  113. -55.2 CLRSKY_S…  1985  8.5   6.91  4.66  2.47  1.19  0.69 0.93   1.9 
#>  3  113. -55.2 ALLSKY_S…  1984  4.95  4.14  2.48  1.34  0.67  0.39 0.580  1.18
#>  4  113. -55.2 ALLSKY_S…  1985  4.21  3.55  2.68  1.47  0.72  0.37 0.53   1.13
#>  5  113. -55.2 CLRSKY_S…  1984  8.5   6.84  4.64  2.52  1.19  0.69 0.94   1.96
#>  6  113. -55.2 CLRSKY_S…  1985  8.5   6.91  4.66  2.47  1.19  0.69 0.93   1.9 
#>  7  113. -55.2 ALLSKY_S…  1984  4.95  4.14  2.48  1.34  0.67  0.39 0.580  1.18
#>  8  113. -55.2 ALLSKY_S…  1985  4.21  3.55  2.68  1.47  0.72  0.37 0.53   1.13
#>  9  114. -55.2 CLRSKY_S…  1984  8.5   6.84  4.64  2.52  1.19  0.69 0.94   1.96
#> 10  114. -55.2 CLRSKY_S…  1985  8.5   6.91  4.66  2.47  1.19  0.69 0.93   1.9 
#> # ... with 298 more rows, and 5 more variables: SEP <dbl>, OCT <dbl>,
#> #   NOV <dbl>, DEC <dbl>, ANN <dbl>
…
